<svg width="24" height="24" viewBox="0 0 24 24" fill="none" xmlns="http://www.w3.org/2000/svg">
<path d="M0.75 3.25V8.25H3.25V3.25H8.25V0.75H3.25C1.875 0.75 0.75 1.875 0.75 3.25ZM3.25 15.75H0.75V20.75C0.75 22.125 1.875 23.25 3.25 23.25H8.25V20.75H3.25V15.75ZM20.75 20.75H15.75V23.25H20.75C22.125 23.25 23.25 22.125 23.25 20.75V15.75H20.75V20.75ZM20.75 0.75H15.75V3.25H20.75V8.25H23.25V3.25C23.25 1.875 22.125 0.75 20.75 0.75Z" fill="white"/>
</svg>
