<svg width="15" height="20" viewBox="0 0 15 20" fill="none" xmlns="http://www.w3.org/2000/svg">
<path d="M14.5705 0.535983V19.464C14.5705 19.7587 14.3294 19.9997 14.0348 19.9997H11.892C11.5973 19.9997 11.3563 19.7587 11.3563 19.464V11.5892L2.62884 19.6694C1.70922 20.4327 0.285156 19.7944 0.285156 18.5712V1.42881C0.285156 0.205635 1.70922 -0.43274 2.62884 0.330631L11.3563 8.36165V0.535983C11.3563 0.241348 11.5973 0.000283436 11.892 0.000283436H14.0348C14.3294 0.000283436 14.5705 0.241348 14.5705 0.535983Z" fill="white"/>
</svg>
